module sshportal

go 1.20

require (
	github.com/anmitsu/go-shlex v0.0.0-20200514113438-38f4b401e2be
	github.com/asaskevich/govalidator v0.0.0-20230301143203-a9d515a09cc2
	github.com/dustin/go-humanize v1.0.1
	github.com/go-gormigrate/gormigrate/v2 v2.1.1
	github.com/mgutz/ansi v0.0.0-20200706080929-d51e80ef957d
	github.com/olekukonko/tablewriter v0.0.5
	github.com/urfave/cli v1.22.14
	golang.org/x/crypto v0.14.0
	golang.org/x/net v0.17.0
	golang.org/x/term v0.13.0
	gorm.io/driver/mysql v1.5.2
	gorm.io/driver/postgres v1.5.3
	gorm.io/driver/sqlite v1.5.4
	gorm.io/gorm v1.25.5
)

require (
	github.com/cpuguy83/go-md2man/v2 v2.0.3 // indirect
	github.com/go-sql-driver/mysql v1.7.1 // indirect
	github.com/jackc/pgpassfile v1.0.0 // indirect
	github.com/jackc/pgservicefile v0.0.0-20221227161230-091c0ba34f0a // indirect
	github.com/jackc/pgx/v5 v5.4.3 // indirect
	github.com/jinzhu/inflection v1.0.0 // indirect
	github.com/jinzhu/now v1.1.5 // indirect
	github.com/mattn/go-colorable v0.1.13 // indirect
	github.com/mattn/go-isatty v0.0.19 // indirect
	github.com/mattn/go-runewidth v0.0.15 // indirect
	github.com/mattn/go-sqlite3 v1.14.17 // indirect
	github.com/rivo/uniseg v0.4.4 // indirect
	github.com/russross/blackfriday/v2 v2.1.0 // indirect
	golang.org/x/sys v0.13.0 // indirect
	golang.org/x/text v0.13.0 // indirect
)
